%YAML 1.1
%TAG !u! tag:unity3d.com,2011:
--- !u!114 &11400000
MonoBehaviour:
  m_ObjectHideFlags: 0
  m_CorrespondingSourceObject: {fileID: 0}
  m_PrefabInternal: {fileID: 0}
  m_GameObject: {fileID: 0}
  m_Enabled: 1
  m_EditorHideFlags: 0
  m_Script: {fileID: 11500000, guid: b2d419e67fbb5a941b1135985d8684a9, type: 3}
  m_Name: PickUp_Points
  m_EditorClassIdentifier: 
  clips:
  - {fileID: 8300000, guid: e5befa3d1b960944580d9036e75ee867, type: 3}
  minVol: 0
  maxVol: 0
  minPitch: 1
  maxPitch: 1
