%YAML 1.1
%TAG !u! tag:unity3d.com,2011:
--- !u!114 &11400000
MonoBehaviour:
  m_ObjectHideFlags: 0
  m_CorrespondingSourceObject: {fileID: 0}
  m_PrefabInternal: {fileID: 0}
  m_GameObject: {fileID: 0}
  m_Enabled: 1
  m_EditorHideFlags: 0
  m_Script: {fileID: 11500000, guid: a0d5336122174024296694e1db8f9a31, type: 3}
  m_Name: T9.1_FuckAll
  m_EditorClassIdentifier: 
  Name: Tombstones
  ToolTipText:
  - '[Placeholder]'
  PauseOnToolTip: 0
  ShowToolTip: 1
  OneShot: 0
  CharacterIcon: {fileID: 21300000, guid: 522855126b56cfe45ab586bdd218d20a, type: 3}
