%YAML 1.1
%TAG !u! tag:unity3d.com,2011:
--- !u!114 &11400000
MonoBehaviour:
  m_ObjectHideFlags: 0
  m_CorrespondingSourceObject: {fileID: 0}
  m_PrefabInternal: {fileID: 0}
  m_GameObject: {fileID: 0}
  m_Enabled: 1
  m_EditorHideFlags: 0
  m_Script: {fileID: 11500000, guid: b2d419e67fbb5a941b1135985d8684a9, type: 3}
  m_Name: Howlend_TakeDamage
  m_EditorClassIdentifier: 
  clips:
  - {fileID: 8300000, guid: 81bfd14924be1474d94c74d71358c7d7, type: 3}
  - {fileID: 8300000, guid: 10eb6b99b07620a4486e85e6581f2010, type: 3}
  - {fileID: 8300000, guid: b2d350c2154a55043857accf80ff591f, type: 3}
  - {fileID: 8300000, guid: 33c5bc2784aa4944fb718a4f2768bcd4, type: 3}
  - {fileID: 8300000, guid: 21340c747d19c2b4bb4b19f1493a6dc1, type: 3}
  - {fileID: 8300000, guid: 2b5df64058f8a9d42a1f0e509bd7c1e8, type: 3}
  - {fileID: 8300000, guid: 817599fd1f2bc52448a48f05c9e6926d, type: 3}
  minVol: 0.6
  maxVol: 0.6
  minPitch: 1
  maxPitch: 1
