%YAML 1.1
%TAG !u! tag:unity3d.com,2011:
--- !u!114 &11400000
MonoBehaviour:
  m_ObjectHideFlags: 0
  m_CorrespondingSourceObject: {fileID: 0}
  m_PrefabInternal: {fileID: 0}
  m_GameObject: {fileID: 0}
  m_Enabled: 1
  m_EditorHideFlags: 0
  m_Script: {fileID: 11500000, guid: a0d5336122174024296694e1db8f9a31, type: 3}
  m_Name: 11_SapFlask
  m_EditorClassIdentifier: 
  Name: FlaskUnlock_Sap
  ToolTipText:
  - "\rThis flask creates a pool of sap. The sap reacts with other flasks to expand
    their range to that of the pool.\r"
  PauseOnToolTip: 0
  ShowToolTip: 1
  OneShot: 1
  CharacterIcon: {fileID: 21300000, guid: a30e9f48875cc5c4a943e12812da7994, type: 3}
