%YAML 1.1
%TAG !u! tag:unity3d.com,2011:
--- !u!114 &11400000
MonoBehaviour:
  m_ObjectHideFlags: 0
  m_CorrespondingSourceObject: {fileID: 0}
  m_PrefabInternal: {fileID: 0}
  m_GameObject: {fileID: 0}
  m_Enabled: 1
  m_EditorHideFlags: 0
  m_Script: {fileID: 11500000, guid: a0d5336122174024296694e1db8f9a31, type: 3}
  m_Name: 8_Tombstones
  m_EditorClassIdentifier: 
  Name: Tombstones
  ToolTipText:
  - "\rThese resting places will save your progress. My brothers and sisters that
    dwell within are genuinely full of wisdom, if a little cranky.\r"
  - "\r...They are just mad that they are dead. Fortunately, unlike them, we can just
    walk away.\r"
  PauseOnToolTip: 1
  ShowToolTip: 1
  OneShot: 1
  CharacterIcon: {fileID: 21300000, guid: f4c668d93d106a74f8ed6604096cafa9, type: 3}
